R básico para Químicos
…
Consideramos como exemplo os dados fictícios de `\(n=30\)` gestações gemelares. Vamos considerar duas bases de dados. Na primeira, chamada de "Base_CTG_caracterizacao" estão contidas as informações de caracterização das gestantes e gestações. 

Para importar a base de dados: 

``` r
library(readxl)
dados <- read_excel(path = "database/petro.xls",na="NA", sheet = "Refino") # Selecionando a aba
dados
  #> # A tibble: 72 × 14
  #>    Amostra Campo       `Densidade API` Viscosidade Cinemáti…¹ `Ponto de Fluidez`
  #>      <dbl> <chr>                 <dbl>                  <dbl>              <dbl>
  #>  1       1 FAZA                   42.2                   3.76                 17
  #>  2       2 Baleia Azul            20                    62.0                 -42
  #>  3       3 Golfinho               26.7                  14.8                 -33
  #>  4       4 Golfinho               27.4                  11.8                 -38
  #>  5       5 Jubarte                18.2                 139                   -27
  #>  6       5 Jubarte                18.2                 139                   -27
  #>  7       6 Golfinho               29.3                   9.09                -21
  #>  8       7 FAZA                   29.6                   8.82                  9
  #>  9       8 Baleia Azul            22.1                  37.4                 -28
  #> 10       9 Golfinho               25.6                  15.2                 -36
  #> # ℹ 62 more rows
  #> # ℹ abbreviated name: ¹​`Viscosidade Cinemática`
  #> # ℹ 9 more variables: Saturados <dbl>, Aromáticos <dbl>, Resinas <dbl>,
  #> #   Asfaltenos <dbl>, KUOP <dbl>, `Enxofre total` <dbl>, TAN <dbl>,
  #> #   Data <dttm>, X <lgl>
```
…
---
class: middle

``` r
library(dplyr)
dados1 <-  distinct(dados,amostra, .keep_all = TRUE)
dados1
  #> # A tibble: 70 × 13
  #>    amostra campo densidade_api viscosidade_cinematica ponto_de_fluidez saturados
  #>      <dbl> <chr>         <dbl>                  <dbl>            <dbl>     <dbl>
  #>  1       1 FAZA           42.2                   3.76               17      79.6
  #>  2       2 Bale…          20                    62.0               -42      40.4
  #>  3       3 Golf…          26.7                  14.8               -33      44.9
  #>  4       4 Golf…          27.4                  11.8               -38      56.2
  #>  5       5 Juba…          18.2                 139                 -27      53  
  #>  6       6 Golf…          29.3                   9.09              -21      58.2
  #>  7       7 FAZA           29.6                   8.82                9      63.9
  #>  8       8 Bale…          22.1                  37.4               -28      54.2
  #>  9       9 Golf…          25.6                  15.2               -36      58.6
  #> 10      10 Golf…          24.9                  22.0               -38      47.2
  #> # ℹ 60 more rows
  #> # ℹ 7 more variables: aromaticos <dbl>, resinas <dbl>, asfaltenos <dbl>,
  #> #   kuop <dbl>, enxofre_total <dbl>, tan <dbl>, data <dttm>
```
…
